{
  "project_info": {
    "project_number": "633034252934",
    "firebase_url": "https://galvanized-vent-131015.firebaseio.com",
    "project_id": "galvanized-vent-131015",
    "storage_bucket": "galvanized-vent-131015.appspot.com"
  },
  "client": [
    {
      "client_info": {
        "mobilesdk_app_id": "1:633034252934:android:886ac1a5f38c8f00ec6707",
        "android_client_info": {
          "package_name": "com.example.beowulfwebrtclib"
        }
      },
      "oauth_client": [
        {
          "client_id": "633034252934-0jsvo7umt7qgu7cpm5l2582gs11vrqir.apps.googleusercontent.com",
          "client_type": 1,
          "android_info": {
            "package_name": "com.example.beowulfwebrtclib",
            "certificate_hash": "52d143c24375ac279dfb274adc8ddc928d5a74c3"
          }
        },
        {
          "client_id": "633034252934-80j5176kb6o9l5k5mrbk20n9tnbr1g4c.apps.googleusercontent.com",
          "client_type": 3
        }
      ],
      "api_key": [
        {
          "current_key": "AIzaSyDKovvTC2SKqRQOitXPEARoco8aemUpuDg"
        }
      ],
      "services": {
        "appinvite_service": {
          "other_platform_oauth_client": [
            {
              "client_id": "633034252934-80j5176kb6o9l5k5mrbk20n9tnbr1g4c.apps.googleusercontent.com",
              "client_type": 3
            }
          ]
        }
      }
    }
  ],
  "configuration_version": "1"
}